Krew i popiół                             Jennifer L. Armentrout
Start a fire. Runda pierwsza              P.S. Herytiera
Anomalia                                  Hervé Le Tellier
Gdzie śpiewają raki                       Delia Owens
Behawiorysta                              Remigiusz Mróz
Terapeutka                                B.A. Paris
Zaraza                                    Przemysław Piotrowski